{
  "version": "1.1",
  "licenses": [
    {
      "count": 5,
      "name": "MIT"
    },
    {
      "count": 3,
      "name": "Apache 2.0"
    },
    {
      "count": 2,
      "name": "New BSD"
    },
    {
      "count": 1,
      "name": "ISC"
    },
    {
      "count": 1,
      "name": "MIT, Apache 2.0"
    },
    {
      "count": 1,
      "name": "Simplified BSD"
    }
  ],
  "dependencies": [
    {
      "licenses": [
        {
          "name": "MIT",
          "url": "http://opensource.org/licenses/mit-license"
        }
      ],
      "license": {
        "name": "MIT",
        "url": "http://opensource.org/licenses/mit-license"
      },
      "dependency": {
        "name": "github.com/astaxie/beego",
        "description": "",
        "pathes": [
          "."
        ]
      }
    },
    {
      "licenses": [
        {
          "name": "ISC",
          "url": "http://en.wikipedia.org/wiki/ISC_license"
        }
      ],
      "license": {
        "name": "ISC",
        "url": "http://en.wikipedia.org/wiki/ISC_license"
      },
      "dependency": {
        "name": "github.com/davecgh/go-spew",
        "description": "",
        "pathes": [
          "."
        ]
      }
    },
    {
      "licenses": [
        {
          "name": "MIT",
          "url": "http://opensource.org/licenses/mit-license"
        }
      ],
      "license": {
        "name": "MIT",
        "url": "http://opensource.org/licenses/mit-license"
      },
      "dependency": {
        "name": "github.com/konsorten/go-windows-terminal-sequences",
        "description": "",
        "pathes": [
          "."
        ]
      }
    },
    {
      "licenses": [
        {
          "name": "Apache 2.0",
          "url": "http://www.apache.org/licenses/LICENSE-2.0.txt"
        }
      ],
      "license": {
        "name": "Apache 2.0",
        "url": "http://www.apache.org/licenses/LICENSE-2.0.txt"
      },
      "dependency": {
        "name": "github.com/minio/minio",
        "description": "",
        "pathes": [
          "."
        ]
      }
    },
    {
      "licenses": [
        {
          "name": "Apache 2.0",
          "url": "http://www.apache.org/licenses/LICENSE-2.0.txt"
        }
      ],
      "license": {
        "name": "Apache 2.0",
        "url": "http://www.apache.org/licenses/LICENSE-2.0.txt"
      },
      "dependency": {
        "name": "github.com/minio/minio-go",
        "description": "",
        "pathes": [
          "."
        ]
      }
    },
    {
      "licenses": [
        {
          "name": "Apache 2.0",
          "url": "http://www.apache.org/licenses/LICENSE-2.0.txt"
        }
      ],
      "license": {
        "name": "Apache 2.0",
        "url": "http://www.apache.org/licenses/LICENSE-2.0.txt"
      },
      "dependency": {
        "name": "github.com/minio/sha256-simd",
        "description": "",
        "pathes": [
          "."
        ]
      }
    },
    {
      "licenses": [
        {
          "name": "New BSD",
          "url": "http://opensource.org/licenses/BSD-3-Clause"
        }
      ],
      "license": {
        "name": "New BSD",
        "url": "http://opensource.org/licenses/BSD-3-Clause"
      },
      "dependency": {
        "name": "github.com/pmezard/go-difflib",
        "description": "",
        "pathes": [
          "."
        ]
      }
    },
    {
      "licenses": [
        {
          "name": "MIT",
          "url": "http://opensource.org/licenses/mit-license"
        }
      ],
      "license": {
        "name": "MIT",
        "url": "http://opensource.org/licenses/mit-license"
      },
      "dependency": {
        "name": "github.com/sirupsen/logrus",
        "description": "",
        "pathes": [
          "."
        ]
      }
    },
    {
      "licenses": [
        {
          "name": "MIT",
          "url": "http://opensource.org/licenses/mit-license"
        }
      ],
      "license": {
        "name": "MIT",
        "url": "http://opensource.org/licenses/mit-license"
      },
      "dependency": {
        "name": "github.com/stretchr/objx",
        "description": "",
        "pathes": [
          "."
        ]
      }
    },
    {
      "licenses": [
        {
          "name": "MIT",
          "url": "http://opensource.org/licenses/mit-license"
        }
      ],
      "license": {
        "name": "MIT",
        "url": "http://opensource.org/licenses/mit-license"
      },
      "dependency": {
        "name": "github.com/stretchr/testify",
        "description": "",
        "pathes": [
          "."
        ]
      }
    },
    {
      "licenses": [
        {
          "name": "New BSD",
          "url": "http://opensource.org/licenses/BSD-3-Clause"
        }
      ],
      "license": {
        "name": "New BSD",
        "url": "http://opensource.org/licenses/BSD-3-Clause"
      },
      "dependency": {
        "name": "golang.org/x/sys",
        "description": "",
        "pathes": [
          "."
        ]
      }
    },
    {
      "licenses": [
        {
          "name": "Simplified BSD",
          "url": "http://opensource.org/licenses/bsd-license"
        }
      ],
      "license": {
        "name": "Simplified BSD",
        "url": "http://opensource.org/licenses/bsd-license"
      },
      "dependency": {
        "name": "gopkg.in/check.v1",
        "description": "",
        "pathes": [
          "."
        ]
      }
    },
    {
      "licenses": [
        {
          "name": "Apache 2.0",
          "url": "http://www.apache.org/licenses/LICENSE-2.0.txt"
        },
        {
          "name": "MIT",
          "url": "http://opensource.org/licenses/mit-license"
        }
      ],
      "license": {
        "name": "MIT, Apache 2.0",
        "url": "http://opensource.org/licenses/mit-license"
      },
      "dependency": {
        "name": "gopkg.in/yaml.v2",
        "description": "",
        "pathes": [
          "."
        ]
      }
    }
  ]
}