{
  "version": "2.1",
  "licenses": [
    {
      "id": "Apache-2.0",
      "name": "Apache License 2.0",
      "url": "https://opensource.org/licenses/Apache-2.0"
    },
    {
      "id": "MIT",
      "name": "MIT License",
      "url": "https://opensource.org/licenses/MIT"
    },
    {
      "id": "Unlicense",
      "name": "The Unlicense",
      "url": "https://unlicense.org/"
    }
  ],
  "dependencies": [
    {
      "name": "byteorder",
      "version": "v1.3.4",
      "package_manager": "cargo",
      "path": "Cargo.lock",
      "licenses": [
        "MIT",
        "Unlicense"
      ]
    },
    {
      "name": "diesel",
      "version": "v1.4.5",
      "package_manager": "cargo",
      "path": "Cargo.lock",
      "licenses": [
        "Apache-2.0",
        "MIT"
      ]
    },
    {
      "name": "diesel_derives",
      "version": "v1.4.1",
      "package_manager": "cargo",
      "path": "Cargo.lock",
      "licenses": [
        "Apache-2.0",
        "MIT"
      ]
    },
    {
      "name": "proc-macro2",
      "version": "v1.0.19",
      "package_manager": "cargo",
      "path": "Cargo.lock",
      "licenses": [
        "Apache-2.0",
        "MIT"
      ]
    },
    {
      "name": "quote",
      "version": "v1.0.7",
      "package_manager": "cargo",
      "path": "Cargo.lock",
      "licenses": [
        "Apache-2.0",
        "MIT"
      ]
    },
    {
      "name": "syn",
      "version": "v1.0.38",
      "package_manager": "cargo",
      "path": "Cargo.lock",
      "licenses": [
        "Apache-2.0",
        "MIT"
      ]
    },
    {
      "name": "unicode-xid",
      "version": "v0.2.1",
      "package_manager": "cargo",
      "path": "Cargo.lock",
      "licenses": [
        "Apache-2.0",
        "MIT"
      ]
    }
  ]
}